{
  "initArgs":{"ignoreCase":"true"},
  "initializedOn":"2018-03-12T00:14:02.736Z",
  "updatedSinceInit":"2018-03-12T00:16:00.558Z",
  "managedMap":{
    "battery":["coordless"],
    "bosch hammer":["PSB"]}}